[
  {
    "id": 1,
    "name": "Product 1",
    "price": 10.99,
    "image": "./img/69_600.jpg",
    "article": "123456",
    "color": "Red"
  },
  {
    "id": 2,
    "name": "Product 2",
    "price": 19.99,
    "image": "./img/9_600.jpg",
    "article": "789012",
    "color": "Blue"
  },
  {
    "id": 3,
    "name": "Product 3",
    "price": 48.99,
    "image": "./img/19_607.jpg",
    "article": "789013",
    "color": "Blue"
  },
  {
    "id": 4,
    "name": "Product 4",
    "price": 50.99,
    "image": "./img/23_600.jpg",
    "article": "789014",
    "color": "Blue"
  },
  {
    "id": 5,
    "name": "Product 5",
    "price": 36.99,
    "image": "./img/25_600.jpg",
    "article": "789015",
    "color": "Blue"
  },
  {
    "id": 6,
    "name": "Product 6",
    "price": 24.99,
    "image": "./img/69_601.jpg",
    "article": "789016",
    "color": "Blue"
  },
  {
    "id": 7,
    "name": "Product 7",
    "price": 18.99,
    "image": "./img/69_609.jpg",
    "article": "789017",
    "color": "Blue"
  },
  {
    "id": 8,
    "name": "Product 8",
    "price": 36.99,
    "image": "./img/75_600.jpg",
    "article": "789018",
    "color": "Blue"
  },
  {
    "id": 9,
    "name": "Product 9",
    "price": 22.99,
    "image": "./img/76_600.jpg",
    "article": "789019",
    "color": "Blue"
  },
  {
    "id": 10,
    "name": "Product 10",
    "price": 45.99,
    "image": "./img/92_605.jpg",
    "article": "789512",
    "color": "Blue"
  }
]